^C:\USERS\AMIT\DOCUMENTS\CLASSES\C++\LESSON12\THREADSYNC\THREADSYNC\THREADS.CPP
/c /ZI /nologo /W3 /WX- /sdl /Od /Oy- /D _MBCS /Gm /EHsc /RTC1 /MDd /GS /fp:precise /Zc:wchar_t /Zc:forScope /Fo"DEBUG\\" /Fd"DEBUG\VC120.PDB" /Gd /TP /analyze- C:\USERS\AMIT\DOCUMENTS\CLASSES\C++\LESSON12\THREADSYNC\THREADSYNC\THREADS.CPP
^C:\USERS\AMIT\DOCUMENTS\CLASSES\C++\LESSON12\THREADSYNC\THREADSYNC\SOURCE.CPP
/c /ZI /nologo /W3 /WX- /sdl /Od /Oy- /D _MBCS /Gm /EHsc /RTC1 /MDd /GS /fp:precise /Zc:wchar_t /Zc:forScope /Fo"DEBUG\\" /Fd"DEBUG\VC120.PDB" /Gd /TP /analyze- C:\USERS\AMIT\DOCUMENTS\CLASSES\C++\LESSON12\THREADSYNC\THREADSYNC\SOURCE.CPP
^C:\USERS\AMIT\DOCUMENTS\CLASSES\C++\LESSON12\THREADSYNC\THREADSYNC\MESSAGESSENDER.CPP
/c /ZI /nologo /W3 /WX- /sdl /Od /Oy- /D _MBCS /Gm /EHsc /RTC1 /MDd /GS /fp:precise /Zc:wchar_t /Zc:forScope /Fo"DEBUG\\" /Fd"DEBUG\VC120.PDB" /Gd /TP /analyze- C:\USERS\AMIT\DOCUMENTS\CLASSES\C++\LESSON12\THREADSYNC\THREADSYNC\MESSAGESSENDER.CPP
